﻿Date: 201882ID: 466545 Age: 16 Sex: M
Frame: 78, 14.43333,OnMagicStickHold (0.5, 0.0, 1.1)
Frame: 121, 15.86667,OnTargetReached (0.4, 0.6, 1.3)
Frame: 340, 23.16667,OnMagicStickHold (0.5, -0.3, 1.2)
Frame: 430, 26.17156,OnTargetTimerUp
Frame: 482, 27.9,OnMagicStickHold (-0.3, -0.3, 1.1)
Frame: 520, 29.16667,OnTargetReached (-0.4, 0.2, 1.1)
